Spotify Data Visualization
…
Attention: Apparently each song can repeat a few
times with a few genres!

spotify_songs %>% count(track_id, sort = TRUE)

## # A tibble: 28,356 x 2
##    track_id                   n
##    <chr>                  <int>
##  1 7BKLCZ1jbUBVqRi2FVlTVw    10
##  2 14sOS5L36385FJ3OL8hew4     9
##  3 3eekarcy7kvN4yt5ZFzltW     9
##  4 0nbXyq5TXYPCO7pr3N8S4I     8
##  5 0qaWEvPkts34WF68r8Dzx9     8
##  6 0rIAC4PXANcKmitJfoqmVm     8
##  7 0sf12qNH5qcw8qpgymFOqD     8
##  8 2b8fOow8UzyDFAE27YhOZM     8
##  9 2Fxmhks0bxGSBdJ92vM42m     8
## 10 2tnVG71enUj33Ic2nFN6kZ     8
## # ... with 28,346 more rows
…
